…
This dataset contants 1384617 rows and xyz columns Observations are
levels of items in order by user. There are user/order variables. – user
id, order id, order day, and order hour. There are also item variables –
name, aisle, department, and some numeric code.

How many aisles are most items from?

``` r
instacart %>% count(aisle) %>% arrange(desc(n))
```

    ## # A tibble: 134 x 2
    ##    aisle                              n
    ##    <chr>                          <int>
    ##  1 fresh vegetables              150609
    ##  2 fresh fruits                  150473
    ##  3 packaged vegetables fruits     78493
    ##  4 yogurt                         55240
    ##  5 packaged cheese                41699
    ##  6 water seltzer sparkling water  36617
    ##  7 milk                           32644
    ##  8 chips pretzels                 31269
    ##  9 soy lactosefree                26240
    ## 10 bread                          23635
    ## # ... with 124 more rows
…
